{
  "project_info": {
    "project_number": "261521650773",
    "project_id": "ganith-c30dd",
    "storage_bucket": "ganith-c30dd.appspot.com"
  },
  "client": [
    {
      "client_info": {
        "mobilesdk_app_id": "1:261521650773:android:3db050876200505dc2d0dc",
        "android_client_info": {
          "package_name": "com.ganith"
        }
      },
      "oauth_client": [
        {
          "client_id": "261521650773-437rba6cgd6nnohlhiob0a3puigthf8c.apps.googleusercontent.com",
          "client_type": 1,
          "android_info": {
            "package_name": "com.ganith",
            "certificate_hash": "10c924bbdf29733c914d144d8691886cda826361"
          }
        },
        {
          "client_id": "261521650773-omc4m5vnstjaqp6r6ctvlhsvuvm24tm8.apps.googleusercontent.com",
          "client_type": 3
        }
      ],
      "api_key": [
        {
          "current_key": "AIzaSyCsQ_D0oEjjMYSkn8ilAAnXoh9PBMHuEsw"
        }
      ],
      "services": {
        "appinvite_service": {
          "other_platform_oauth_client": [
            {
              "client_id": "261521650773-omc4m5vnstjaqp6r6ctvlhsvuvm24tm8.apps.googleusercontent.com",
              "client_type": 3
            }
          ]
        }
      }
    }
  ],
  "configuration_version": "1"
}